{
    "presets": [
        [
            "@babel/preset-env",
            {
                "corejs": "3.9",
                "useBuiltIns": "usage"
            }
        ] 
    ],
    "plugins": ["@babel/plugin-transform-modules-commonjs"]
}
